{
  "page": 1,
  "total_results": 2090,
  "total_pages": 105,
  "results": [
    {
      "popularity": 2.971,
      "id": 157438,
      "video": false,
      "vote_count": 1,
      "vote_average": 0,
      "title": "An American Werewolf in London",
      "release_date": "2020-12-31",
      "original_language": "en",
      "original_title": "An American Werewolf in London",
      "genre_ids": [],
      "backdrop_path": null,
      "adult": false,
      "overview": "Remake of the 80's classic.",
      "poster_path": null
    },
    {
      "popularity": 2.5,
      "id": 280773,
      "video": false,
      "vote_count": 0,
      "vote_average": 0,
      "title": "Ambiancé",
      "release_date": "2020-12-31",
      "original_language": "sv",
      "original_title": "Ambiancé",
      "genre_ids": [
        99
      ],
      "backdrop_path": null,
      "adult": false,
      "overview": "Space and time is intertwined into a surreal dream-like journey beyond places and is an abstract nonlinear narrative summary of artist Anders Weberg's time spent with the moving image.",
      "poster_path": "\/wCiV2fVg5H5iP71j9Qnl7ypJAU6.jpg"
    },
    {
      "popularity": 10.414,
      "vote_count": 0,
      "video": false,
      "poster_path": null,
      "id": 323144,
      "adult": false,
      "backdrop_path": null,
      "original_language": "en",
      "original_title": "Anita",
      "genre_ids": [],
      "title": "Anita",
      "vote_average": 0,
      "overview": "The story of the former beauty queen and singer, Anita Bryant, who later in life gained notoriety by campaigning in the 1970s to repeal laws that prohibited discrimination on the basis of sexual orientation.",
      "release_date": "2020-12-31"
    },
    {
      "popularity": 2.667,
      "id": 370183,
      "video": false,
      "vote_count": 0,
      "vote_average": 0,
      "title": "A Man's World",
      "release_date": "2020-12-31",
      "original_language": "en",
      "original_title": "A Man's World",
      "genre_ids": [
        18
      ],
      "backdrop_path": null,
      "adult": false,
      "overview": "The story of boxer Emile Griffith, who took the life of fellow fighter Benny Paret in the ring during a live televised broadcast in 1962.",
      "poster_path": null
    },
    {
      "popularity": 5.71,
      "vote_count": 0,
      "video": false,
      "poster_path": "\/roKRUEkjEIg8zjRDbXt4h1KcqE3.jpg",
      "id": 394151,
      "adult": false,
      "backdrop_path": null,
      "original_language": "en",
      "original_title": "Nosferatu",
      "genre_ids": [
        27
      ],
      "title": "Nosferatu",
      "vote_average": 0,
      "overview": "A 'remix' of 1922's \"Nosferatu,\" utilizing green screen to insert new actors into the original film's environments.",
      "release_date": "2020-12-31"
    },
    {
      "popularity": 2.825,
      "id": 407435,
      "video": false,
      "vote_count": 0,
      "vote_average": 0,
      "title": "The Fortress",
      "release_date": "2020-12-31",
      "original_language": "en",
      "original_title": "The Fortress",
      "genre_ids": [],
      "backdrop_path": null,
      "adult": false,
      "overview": "A group of refugees hidden aboard a container ship discover their passage to safety is not what it seems",
      "poster_path": null
    },
    {
      "popularity": 2.455,
      "id": 407438,
      "video": false,
      "vote_count": 0,
      "vote_average": 0,
      "title": "Codename: Housewife",
      "release_date": "2020-12-31",
      "original_language": "en",
      "original_title": "Codename: Housewife",
      "genre_ids": [
        16,
        10751,
        12,
        35
      ],
      "backdrop_path": null,
      "adult": false,
      "overview": "An overworked and underappreciated housewife finds herself recruited by an international security force for the purposes of rescuing a group of recently kidnapped world-famous rock stars from a crazy supervillain.",
      "poster_path": null
    },
    {
      "popularity": 6.663,
      "id": 412012,
      "video": false,
      "vote_count": 0,
      "vote_average": 0,
      "title": "Kung Fury II: The Movie",
      "release_date": "2020-12-31",
      "original_language": "en",
      "original_title": "Kung Fury II: The Movie",
      "genre_ids": [
        28,
        35,
        878,
        14
      ],
      "backdrop_path": "\/htH6rKb6zs2daUR1DtYmRrK7Qsg.jpg",
      "adult": false,
      "overview": "",
      "poster_path": "\/xbSWTw34KPwc59yU6mumlnCR2Tv.jpg"
    },
    {
      "popularity": 2.716,
      "vote_count": 0,
      "video": false,
      "poster_path": "\/q2DkSIV2JrbG9EOpNfUXvFwKoyv.jpg",
      "id": 437518,
      "adult": false,
      "backdrop_path": null,
      "original_language": "en",
      "original_title": "Friend of the World",
      "genre_ids": [
        35,
        18,
        27,
        878,
        53,
        10752
      ],
      "title": "Friend of the World",
      "vote_average": 0,
      "overview": "After a catastrophic war, an eccentric general guides a filmmaker through a ravaged bunker.",
      "release_date": "2020-12-31"
    },
    {
      "popularity": 7.994,
      "vote_count": 0,
      "video": false,
      "poster_path": "\/lPvfw8IZXdkFxuGU6wKAhVPmnyZ.jpg",
      "id": 454527,
      "adult": false,
      "backdrop_path": "\/7sHPUt6fApOALj1OxMcQeAAXfu.jpg",
      "original_language": "fr",
      "original_title": "Benedetta",
      "genre_ids": [
        18,
        36,
        10749
      ],
      "title": "Benedetta",
      "vote_average": 0,
      "overview": "The story of Sister Benedetta Carlini, a 15th century nun who was hailed as a visionary but later accused of fabricated miracles, homosexuality and other charges, and imprisoned for 35 years.",
      "release_date": "2020-12-31"
    },
    {
      "popularity": 3.021,
      "id": 478798,
      "video": false,
      "vote_count": 0,
      "vote_average": 0,
      "title": "Sons of the Neon Night",
      "release_date": "2020-12-31",
      "original_language": "cn",
      "original_title": "風林火山",
      "genre_ids": [
        28,
        80,
        53
      ],
      "backdrop_path": null,
      "adult": false,
      "overview": "A detective goes against the successor to a drug-trafficking crime syndicate, who aspires for a society free of drugs by orchestrating anarchy in Hong Kong.",
      "poster_path": "\/mini5t3eavhgv0dDgGl9sWxnoQq.jpg"
    },
    {
      "popularity": 2.387,
      "id": 492008,
      "video": false,
      "vote_count": 0,
      "vote_average": 0,
      "title": "The Swordsman",
      "release_date": "2020-12-31",
      "original_language": "ko",
      "original_title": "검객",
      "genre_ids": [
        28
      ],
      "backdrop_path": null,
      "adult": false,
      "overview": "The story of swordsmen in Joseon who were confronted with the chaos brought about by the Ming-Qing transition.",
      "poster_path": "\/Am2S2595BCDrpR0S8JCI7E0vHU8.jpg"
    },
    {
      "popularity": 6.831,
      "vote_count": 0,
      "video": false,
      "poster_path": "\/feNRaMyT5qog6oSpmuSIvLCDDJH.jpg",
      "id": 501601,
      "adult": false,
      "backdrop_path": "\/n9BfoH4OtfyLzGiplirxgsZ4Xde.jpg",
      "original_language": "en",
      "original_title": "The Outlaw Johnny Black",
      "genre_ids": [
        28,
        35,
        37
      ],
      "title": "The Outlaw Johnny Black",
      "vote_average": 0,
      "overview": "Hell bent on avenging the death of his father, Johnny Black vows to gun down Brett Clayton and becomes a wanted man in the process while posing as a preacher in a small mining town that's been taken over by a notorious Land Baron.",
      "release_date": "2020-12-31"
    },
    {
      "popularity": 4.497,
      "vote_count": 0,
      "video": false,
      "poster_path": null,
      "id": 505379,
      "adult": false,
      "backdrop_path": null,
      "original_language": "en",
      "original_title": "Rebecca",
      "genre_ids": [
        18,
        9648,
        10749
      ],
      "title": "Rebecca",
      "vote_average": 0,
      "overview": "The story follows a newly married young woman who, upon arriving at her husband’s imposing family estate on a bleak English coast, finds herself battling the shadow of his deceased first wife, the mysterious Rebecca, whose legacy continues to haunt the house.",
      "release_date": "2020-12-31"
    },
    {
      "popularity": 3.939,
      "vote_count": 0,
      "video": false,
      "poster_path": "\/yRT074j1SK26LUNqH29JOnOoI0Q.jpg",
      "id": 509635,
      "adult": false,
      "backdrop_path": "\/bM4aB3fg7b0LQ1IBBY00nA7Pc2M.jpg",
      "original_language": "en",
      "original_title": "Alone",
      "genre_ids": [
        53
      ],
      "title": "Alone",
      "vote_average": 0,
      "overview": "A recently widowed traveler is kidnapped by a cold blooded killer, only to escape into the wilderness where she is forced to battle against the elements as her pursuer closes in on her.",
      "release_date": "2020-12-31"
    },
    {
      "popularity": 8.208,
      "id": 513310,
      "video": false,
      "vote_count": 0,
      "vote_average": 0,
      "title": "Boss Level",
      "release_date": "2020-12-31",
      "original_language": "en",
      "original_title": "Boss Level",
      "genre_ids": [
        28,
        878,
        53
      ],
      "backdrop_path": null,
      "adult": false,
      "overview": "A retired special forces officer is trapped in a never-ending time loop on the day of his death.",
      "poster_path": "\/tEl4Wm1rSAX1XPRgjFEfZbfvWWr.jpg"
    },
    {
      "popularity": 4.019,
      "id": 516729,
      "video": false,
      "vote_count": 0,
      "vote_average": 0,
      "title": "Paddington 3",
      "release_date": "2020-12-31",
      "original_language": "en",
      "original_title": "Paddington 3",
      "genre_ids": [
        35,
        10751
      ],
      "backdrop_path": null,
      "adult": false,
      "overview": "",
      "poster_path": "\/tE5VDezQCnRHLBTjih5aMiapnSa.jpg"
    },
    {
      "popularity": 0.709,
      "id": 518593,
      "video": false,
      "vote_count": 0,
      "vote_average": 0,
      "title": "Horse Julius And Big Horse Racing",
      "release_date": "2020-12-31",
      "original_language": "ru",
      "original_title": "Конь Юлий и большие скачки",
      "genre_ids": [
        16
      ],
      "backdrop_path": null,
      "adult": false,
      "overview": "Spin-off series \"Three heroes\" about the horse Julius",
      "poster_path": null
    },
    {
      "popularity": 16.19,
      "vote_count": 0,
      "video": false,
      "poster_path": null,
      "id": 521007,
      "adult": false,
      "backdrop_path": null,
      "original_language": "en",
      "original_title": "Superintelligence",
      "genre_ids": [],
      "title": "Superintelligence",
      "vote_average": 0,
      "overview": "Carol Peters' life is turned upside down when she is selected for observation by the world's first superintelligence - a form of artificial intelligence that may or may not take over the world.",
      "release_date": "2020-12-31"
    },
    {
      "popularity": 6.075,
      "vote_count": 0,
      "video": false,
      "poster_path": "\/hepFLSchtF9BNOKmyZVS0fIGD5B.jpg",
      "id": 523638,
      "adult": false,
      "backdrop_path": null,
      "original_language": "en",
      "original_title": "Prisoners of the Ghostland",
      "genre_ids": [
        28,
        14,
        27,
        53
      ],
      "title": "Prisoners of the Ghostland",
      "vote_average": 0,
      "overview": "The film centers on notorious criminal Hero who is sent to rescue an abducted girl who has disappeared into a dark supernatural universe. They must break the evil curse that binds them and escape the mysterious revenants that rule the Ghostland, an East-meets-West vortex of beauty and violence.",
      "release_date": "2020-12-31"
    }
  ]
}